
{
    "/api": {
      "target": "https://jsonplaceholder.typicode.com/comments",
      "secure": true,
      "changeOrigin": true,
      "pathRewrite": {
        "^/api": "http://localhost:4200"
      }
    }
  }